id;domaine_id;type;label;description
1;17031;Internal;Electronics bluetooth Response;auxiliary Saint Martin
2;12029;Pizza Integration;calculating gold frictionless;budgetary management Solutions blue
3;77909;invoice Cambridgeshire synergy;Sri Lanka Rupee Books;heuristic
4;45803;input Metal synergies;Bosnia and Herzegovina Cambridgeshire;5th generation
5;36381;Officer;back up;Corporate Berkshire Marketing
6;48694;Concrete Gorgeous plum;firewall;Executive
7;93838;generate Orchestrator Awesome Wooden Fish;Shoes copying Licensed Steel Chips;Wyoming West Virginia
8;74455;transmitting;circuit;Tools Alaska driver
9;33256;transmit HDD 24/7;quantify XML;Kansas Concrete
10;92801;Polarised;Principal interface matrix;flexibility
