    ______
   / ____/   _____  ___   ___           ____ ___   ____    ____   ___    __  __
  / /_      / ___/ / _ \ / _ \ ______  / __ `__ \ / __ \  / __ \ / _ \  / / / /
 / __/     / /    /  __//  __//_____/ / / / / / // /_/ / / / / //  __/ / /_/ /
/_/       /_/     \___/ \___/        /_/ /_/ /_/ \____/ /_/ /_/ \___/  \__, /
                                                                      /____/
${AnsiColor.BRIGHT_BLUE}:: Free IT Product 🤓  :: Running Spring Boot ${spring-boot.version} ::
:: https://www.free.sn::${AnsiColor.DEFAULT}
