{
    "name": "RemittanceTransaction",
    "fields": [
        {
            "fieldName": "externalId",
            "fieldType": "Integer",
            "fieldValidateRules": [
                "required"
            ]
        },
        {
            "fieldName": "externalCode",
            "fieldType": "String",
            "fieldValidateRules": [
                "required"
            ]
        },
        {
            "fieldName": "beneficiaryFirstName",
            "fieldType": "String"
        },
        {
            "fieldName": "beneficiaryLastName",
            "fieldType": "String"
        },
        {
            "fieldName": "beneficiaryMsisdn",
            "fieldType": "String"
        },
        {
            "fieldName": "senderFirstName",
            "fieldType": "String"
        },
        {
            "fieldName": "senderLastName",
            "fieldType": "String"
        },
        {
            "fieldName": "sourceCountryIsoCode",
            "fieldType": "String"
        },
        {
            "fieldName": "sentAmount",
            "fieldType": "Double"
        },
        {
            "fieldName": "sentAmountCurrency",
            "fieldType": "String"
        },
        {
            "fieldName": "destinationAmount",
            "fieldType": "Double"
        },
        {
            "fieldName": "destinationAmountCurrency",
            "fieldType": "String"
        },
        {
            "fieldName": "creationDate",
            "fieldType": "String"
        },
        {
            "fieldName": "statusMessage",
            "fieldType": "String"
        }
    ],
    "relationships": [
        {
            "relationshipType": "many-to-one",
            "otherEntityName": "remittanceMtoTypes",
            "otherEntityRelationshipName": "remittanceTransaction",
            "relationshipName": "mtoType",
            "otherEntityField": "domaineId"
        },
        {
            "relationshipType": "many-to-one",
            "otherEntityName": "remittanceTransactionStatus",
            "otherEntityRelationshipName": "remittanceTransaction",
            "relationshipName": "status",
            "otherEntityField": "domaineId"
        }
    ],
    "changelogDate": "20200819131600",
    "entityTableName": "remittance_transaction",
    "dto": "mapstruct",
    "pagination": "pagination",
    "service": "serviceImpl",
    "jpaMetamodelFiltering": false,
    "fluentMethods": true,
    "readOnly": false,
    "clientRootFolder": "",
    "applications": "*"
}